[
    {
		"name":"Please update the app",
		"author":"WallsHub/UniversalApps",
		"url":"https://gitlab.com/universalapps/wallshub/raw/master/update.jpg",
		"thumbnail": "https://gitlab.com/universalapps/wallshub/raw/master/update.jpg",
		"collections":"Update the app!",
		"downloadable":true,
		"copyright":"WallsHub/UniversalApps"
	}
]